{
	"type": "minecraft:crafting_shaped",
	"pattern": [
		"X",
		"X",
		"#"
	],
	"key": {
		"X": {
			"item": "minecraft:redstone"
		},
		"#": {
			"item": "minecraft:stick"
		}
	},
	"result": {
		"item": "firstmod:redstone_sword"
	}
}
