{
  "type": "minecraft:crafting_shaped",
  "pattern": [
    "XXX",
    " # ",
    " # "
  ],
  "key": {
    "#": {
      "item": "minecraft:stick"
    },
    "X": {
      "item": "minecraft:redstone"
    }
  },
  "result": {
    "item": "firstmod:redstone_pickaxe"
  }
}